<?xml version="1.0" encoding="UTF-8" standalone="no"?>
<svg xmlns:rdf="http://www.w3.org/1999/02/22-rdf-syntax-ns#" xmlns="http://www.w3.org/2000/svg" xml:space="preserve" height="64.49" width="65.15" version="1.1" xmlns:cc="http://creativecommons.org/ns#" xmlns:dc="http://purl.org/dc/elements/1.1/" viewBox="0 0 65.15 64.49">
<rect id="bgColor00" height="63.575" width="64.368" y=".509" x=".39201" fill="#b7b7b7"/>
<path d="m0.0019995-0.001v64.492h65.146v-64.492h-65.146zm64.146 63.492h-63.146v-62.492h63.146v62.492z"/>
</svg>
