<?xml version="1.0" encoding="UTF-8" standalone="no"?>
<svg xmlns="http://www.w3.org/2000/svg" width="134.22px" xml:space="preserve" height="104.75px" viewBox="0 0 134.219 104.75" baseProfile="tiny" version="1.2" y="0px" x="0px" xmlns:xlink="http://www.w3.org/1999/xlink">
<path d="m-0.042 39.412v68.471h133.98v-69.136c-23.9-39.437-69.277-36.283-69.277-36.283s-49.725 1.216-64.705 36.951z" stroke="#000" stroke-width="2" fill="#C0C0C0"/>
<path d="m131.58 34.799c0.166 1.209 8.971 4.379-16.025 8.442s-72.497 3.65-99.226-0.425c-20.731-3.161-14.574-7.374-14.168-7.6" stroke="#000" stroke-width="2" fill="none"/>
<path d="m61.909 5.376c-46.505 6.541-55.555 30.466-55.555 30.466s22.581 6.272 44.445 5.019c-18.011-2.42-19.11-6.479-18.997-11.111s5.376-17.563 30.107-24.374z" fill="#808080"/>
<path d="m3.233 45.123v59.044h12.884s0.096-41.842 0.096-55.323c-5.117-0.399-12.98-3.724-12.98-3.724z" fill="#808080"/>
<path d="m65.723 6.01c-34.856 8.959-31.16 25.631-31.16 25.631s1.921 7.591 15.434 6.776c-7.241-1.54-9.55-5.269-9.546-7.814 0.005-2.546 1.201-17.123 25.272-24.593z" fill="#fff"/>
<path d="m21.812 49.834v53.916h-4l-0.096-54.455s2.326 0.828 4.096 0.539z" fill="#fff"/>
<path d="m72.745 4.74c44.85 6.707 55.225 31.703 55.225 31.703s-3.266 1.804-20.811 3.466c3.108-1.636 3.209-7.007 1.741-10.729-1.47-3.722-11.424-17.629-36.155-24.44z" fill="#808080"/>
<path d="m130.19 43.696l-0.113 61.055h-5v-58.543s4.06-0.97 5.11-2.511z" fill="#808080"/>
</svg>
