﻿#Engineering-Data-Exchange;;;;;;;;;;;;
PROJECT_NAME;"TrosvikSkole";;;;;;;;;;;
VERSION_OF_REFERENCEFILE;1;;;;;;;;;;;
TIMESTAMP_OF_LAST_CHANGE;30.10.2019;;;;;;;;;;;
AUTHOR_OF_LAST_CHANGE;;;;;;;;;;;;
VERSION_OF_LAYOUT;2;;;;;;;;;;;
#mandatory;mandatory;mandatory;mandatory;mandatory;optional;optional;optional;optional;optional;optional;optional;optional
# keyname;device obj.-instance;object-name;object-type;object-instance;description;min-present-value;max-present-value;commandable;hi-limit;low-limit;state-text-reference;unit-code
"Device(10000)";10000;"BY01_320_001_OS001";8;10000;"Varmesentral i kjeller 320";;;;;;;;;;;
"File(2)";10000;"A:\etc\timestmp.bin";10;2;;;;N;;;;
"File(3)";10000;"A:\etc\override.xml";10;3;;;;N;;;;
"File(4)";10000;"A:\etc\symxml.SYM_XML";10;4;;;;N;;;;
"File(8)";10000;"A:\plc\default.prg";10;8;;;;N;;;;
"File(9)";10000;"A:\plc\default.chk";10;9;;;;N;;;;
"File(10)";10000;"A:\plc\persist.dat";10;10;;;;N;;;;
"File(5)";10000;"A:\etc\persist.bin";10;5;;;;N;;;;
"File(11)";10000;"A:\etc\ocd.tsv";10;11;;;;N;;;;
"File(12)";10000;"A:\etc\bdt.bin";10;12;;;;N;;;;
"File(6)";10000;"NVRAM";10;6;;;;N;;;;
"File(7)";10000;"EEPROM";10;7;;;;N;;;;
"Calendar(0)";10000;"CALENDAR_0";6;0;;;;N;;;;
"BinaryOutput(0)";10000;"BINARY_OUTPUT_0";4;0;"750-5xx";;;Y;;;1;
"BinaryOutput(1)";10000;"BINARY_OUTPUT_1";4;1;"750-5xx";;;Y;;;1;
"BinaryOutput(2)";10000;"BINARY_OUTPUT_2";4;2;"750-5xx";;;Y;;;1;
"BinaryOutput(3)";10000;"BINARY_OUTPUT_3";4;3;"750-5xx";;;Y;;;1;
"BinaryOutput(4)";10000;"BINARY_OUTPUT_4";4;4;"750-5xx";;;Y;;;1;
"BinaryOutput(5)";10000;"BINARY_OUTPUT_5";4;5;"750-5xx";;;Y;;;1;
"BinaryOutput(6)";10000;"BINARY_OUTPUT_6";4;6;"750-5xx";;;Y;;;1;
"BinaryOutput(7)";10000;"BINARY_OUTPUT_7";4;7;"750-5xx";;;Y;;;1;
"BinaryOutput(8)";10000;"BINARY_OUTPUT_8";4;8;"750-5xx";;;Y;;;1;
"BinaryOutput(9)";10000;"BINARY_OUTPUT_9";4;9;"750-5xx";;;Y;;;1;
"BinaryOutput(10)";10000;"BINARY_OUTPUT_10";4;10;"750-5xx";;;Y;;;1;
"BinaryOutput(11)";10000;"BINARY_OUTPUT_11";4;11;"750-5xx";;;Y;;;1;
"BinaryOutput(12)";10000;"BINARY_OUTPUT_12";4;12;"750-5xx";;;Y;;;1;
"BinaryOutput(13)";10000;"BINARY_OUTPUT_13";4;13;"750-5xx";;;Y;;;1;
"BinaryOutput(14)";10000;"BINARY_OUTPUT_14";4;14;"750-5xx";;;Y;;;1;
"BinaryOutput(15)";10000;"BINARY_OUTPUT_15";4;15;"750-5xx";;;Y;;;1;
"BinaryInput(0)";10000;"BINARY_INPUT_0";3;0;"750-4xx";;;N;;;1;
"BinaryInput(1)";10000;"BINARY_INPUT_1";3;1;"750-4xx";;;N;;;1;
"BinaryInput(2)";10000;"BINARY_INPUT_2";3;2;"750-4xx";;;N;;;1;
"BinaryInput(3)";10000;"BINARY_INPUT_3";3;3;"750-4xx";;;N;;;1;
"BinaryInput(4)";10000;"BINARY_INPUT_4";3;4;"750-4xx";;;N;;;1;
"BinaryInput(5)";10000;"BINARY_INPUT_5";3;5;"750-4xx";;;N;;;1;
"BinaryInput(6)";10000;"BINARY_INPUT_6";3;6;"750-4xx";;;N;;;1;
"BinaryInput(7)";10000;"BINARY_INPUT_7";3;7;"750-4xx";;;N;;;1;
"BinaryInput(8)";10000;"BINARY_INPUT_8";3;8;"750-4xx";;;N;;;1;
"BinaryInput(9)";10000;"BINARY_INPUT_9";3;9;"750-4xx";;;N;;;1;
"BinaryInput(10)";10000;"BINARY_INPUT_10";3;10;"750-4xx";;;N;;;1;
"BinaryInput(11)";10000;"BINARY_INPUT_11";3;11;"750-4xx";;;N;;;1;
"BinaryInput(12)";10000;"BINARY_INPUT_12";3;12;"750-4xx";;;N;;;1;
"BinaryInput(13)";10000;"BINARY_INPUT_13";3;13;"750-4xx";;;N;;;1;
"BinaryInput(14)";10000;"BINARY_INPUT_14";3;14;"750-4xx";;;N;;;1;
"BinaryInput(15)";10000;"BINARY_INPUT_15";3;15;"750-4xx";;;N;;;1;
"BinaryInput(16)";10000;"BINARY_INPUT_16";3;16;"750-4xx";;;N;;;1;
"BinaryInput(17)";10000;"BINARY_INPUT_17";3;17;"750-4xx";;;N;;;1;
"BinaryInput(18)";10000;"BINARY_INPUT_18";3;18;"750-4xx";;;N;;;1;
"BinaryInput(19)";10000;"BINARY_INPUT_19";3;19;"750-4xx";;;N;;;1;
"BinaryInput(20)";10000;"BINARY_INPUT_20";3;20;"750-4xx";;;N;;;1;
"BinaryInput(21)";10000;"BINARY_INPUT_21";3;21;"750-4xx";;;N;;;1;
"BinaryInput(22)";10000;"BINARY_INPUT_22";3;22;"750-4xx";;;N;;;1;
"BinaryInput(23)";10000;"BINARY_INPUT_23";3;23;"750-4xx";;;N;;;1;
"BinaryInput(24)";10000;"BINARY_INPUT_24";3;24;"750-4xx";;;N;;;1;
"BinaryInput(25)";10000;"BINARY_INPUT_25";3;25;"750-4xx";;;N;;;1;
"BinaryInput(26)";10000;"BINARY_INPUT_26";3;26;"750-4xx";;;N;;;1;
"BinaryInput(27)";10000;"BINARY_INPUT_27";3;27;"750-4xx";;;N;;;1;
"BinaryInput(28)";10000;"BINARY_INPUT_28";3;28;"750-4xx";;;N;;;1;
"BinaryInput(29)";10000;"BINARY_INPUT_29";3;29;"750-4xx";;;N;;;1;
"BinaryInput(30)";10000;"BINARY_INPUT_30";3;30;"750-4xx";;;N;;;1;
"BinaryInput(31)";10000;"BINARY_INPUT_31";3;31;"750-4xx";;;N;;;1;
"BinaryInput(32)";10000;"BINARY_INPUT_32";3;32;"750-4xx";;;N;;;1;
"BinaryInput(33)";10000;"BINARY_INPUT_33";3;33;"750-4xx";;;N;;;1;
"BinaryInput(34)";10000;"BINARY_INPUT_34";3;34;"750-4xx";;;N;;;1;
"BinaryInput(35)";10000;"BINARY_INPUT_35";3;35;"750-4xx";;;N;;;1;
"BinaryInput(36)";10000;"BINARY_INPUT_36";3;36;"750-4xx";;;N;;;1;
"BinaryInput(37)";10000;"BINARY_INPUT_37";3;37;"750-4xx";;;N;;;1;
"BinaryInput(38)";10000;"BINARY_INPUT_38";3;38;"750-4xx";;;N;;;1;
"BinaryInput(39)";10000;"BINARY_INPUT_39";3;39;"750-4xx";;;N;;;1;
"BinaryInput(40)";10000;"BINARY_INPUT_40";3;40;"750-4xx";;;N;;;1;
"BinaryInput(41)";10000;"BINARY_INPUT_41";3;41;"750-4xx";;;N;;;1;
"BinaryInput(42)";10000;"BINARY_INPUT_42";3;42;"750-4xx";;;N;;;1;
"BinaryInput(43)";10000;"BINARY_INPUT_43";3;43;"750-4xx";;;N;;;1;
"BinaryInput(44)";10000;"BINARY_INPUT_44";3;44;"750-4xx";;;N;;;1;
"BinaryInput(45)";10000;"BINARY_INPUT_45";3;45;"750-4xx";;;N;;;1;
"BinaryInput(46)";10000;"BINARY_INPUT_46";3;46;"750-4xx";;;N;;;1;
"BinaryInput(47)";10000;"BINARY_INPUT_47";3;47;"750-4xx";;;N;;;1;
"AnalogOutput(0)";10000;"ANALOG_OUTPUT_0";1;0;"750-559/000-000";;;Y;;;;95
"AnalogOutput(1)";10000;"ANALOG_OUTPUT_1";1;1;"750-559/000-000";;;Y;;;;95
"AnalogOutput(2)";10000;"ANALOG_OUTPUT_2";1;2;"750-559/000-000";;;Y;;;;95
"AnalogOutput(3)";10000;"ANALOG_OUTPUT_3";1;3;"750-559/000-000";;;Y;;;;95
"AnalogInput(0)";10000;"ANALOG_INPUT_0";0;0;"750-459/000-000";;;N;;;;95
"AnalogInput(1)";10000;"ANALOG_INPUT_1";0;1;"750-459/000-000";;;N;;;;95
"AnalogInput(2)";10000;"ANALOG_INPUT_2";0;2;"750-459/000-000";;;N;;;;95
"AnalogInput(3)";10000;"ANALOG_INPUT_3";0;3;"750-459/000-000";;;N;;;;95
"AnalogInput(4)";10000;"ANALOG_INPUT_4";0;4;"750-460/000-003";;;N;;;;95
"AnalogInput(5)";10000;"ANALOG_INPUT_5";0;5;"750-460/000-003";;;N;;;;95
"AnalogInput(6)";10000;"ANALOG_INPUT_6";0;6;"750-460/000-003";;;N;;;;95
"AnalogInput(7)";10000;"ANALOG_INPUT_7";0;7;"750-460/000-003";;;N;;;;95
"AnalogInput(8)";10000;"ANALOG_INPUT_8";0;8;"750-460/000-003";;;N;;;;95
"AnalogInput(9)";10000;"ANALOG_INPUT_9";0;9;"750-460/000-003";;;N;;;;95
"AnalogInput(10)";10000;"ANALOG_INPUT_10";0;10;"750-460/000-003";;;N;;;;95
"AnalogInput(11)";10000;"ANALOG_INPUT_11";0;11;"750-460/000-003";;;N;;;;95
"AnalogInput(12)";10000;"ANALOG_INPUT_12";0;12;"750-460/000-003";;;N;;;;95
"AnalogInput(13)";10000;"ANALOG_INPUT_13";0;13;"750-460/000-003";;;N;;;;95
"AnalogInput(14)";10000;"ANALOG_INPUT_14";0;14;"750-460/000-003";;;N;;;;95
"AnalogInput(15)";10000;"ANALOG_INPUT_15";0;15;"750-460/000-003";;;N;;;;95
"AnalogInput(16)";10000;"ANALOG_INPUT_16";0;16;"750-460/000-003";;;N;;;;95
"AnalogInput(17)";10000;"ANALOG_INPUT_17";0;17;"750-460/000-003";;;N;;;;95
"AnalogInput(18)";10000;"ANALOG_INPUT_18";0;18;"750-460/000-003";;;N;;;;95
"AnalogInput(19)";10000;"ANALOG_INPUT_19";0;19;"750-460/000-003";;;N;;;;95
"BinaryValue(29)";10000;".BY01_320_001_IE001_AL";5;29;"Alarm EL-kjel IE001";;;Y;;;2;
"BinaryValue(30)";10000;".BY01_320_001_IE001_AL_Reset";5;30;"Alarm Reset EL-kjel IE001";;;Y;;;2;
"AnalogValue(25)";10000;".BY01_320_001_IE001_DT";2;25;"Driftstid";;;Y;0.00;0.00;;71
"BinaryValue(31)";10000;".BY01_320_001_IE001_MAN_CMD";5;31;"EL-kjel manuel";;;Y;;;2;
"AnalogValue(24)";10000;".BY01_320_001_IE001_MAN_SP";2;24;"EL-kjel manuelt SP";;;Y;0.00;0.00;;62
"AnalogValue(22)";10000;".BY01_320_001_IE001_OP";2;22;"Paadrag varmeanlegg";;;Y;0.00;0.00;;98
"AnalogValue(23)";10000;".BY01_320_001_IE001_SP";2;23;"Settpunkt EL-kjel IE001";;;Y;0.00;0.00;;0
"BinaryValue(28)";10000;".BY01_320_001_IE001_US";5;28;"Start utgang EL-kjel =320.01-IE001";;;Y;;;2;
"BinaryValue(40)";10000;".BY01_320_001_IO001_AL";5;40;"Feil Oljekjel";;;Y;;;2;
"BinaryValue(41)";10000;".BY01_320_001_IO001_AL_Reset";5;41;"Alarm Reset Olje-kjel IO001";;;Y;;;2;
"AnalogValue(46)";10000;".BY01_320_001_IO001_DT";2;46;"Driftstid";;;Y;0.00;0.00;;71
"BinaryValue(42)";10000;".BY01_320_001_IO001_MAN_CMD";5;42;"Olje-kjel manuel";;;Y;;;2;
"AnalogValue(44)";10000;".BY01_320_001_IO001_MAN_SP";2;44;"Olje-kjel manuelt SP";;;Y;0.00;0.00;;62
"AnalogValue(45)";10000;".BY01_320_001_IO001_OP";2;45;"Paadrag varmeanlegg";;;Y;0.00;0.00;;98
"BinaryValue(38)";10000;".BY01_320_001_IO001_SB";5;38;"Sikkerhetsbryter Oljekjel =320.01-IO001";;;Y;;;2;
"AnalogValue(47)";10000;".BY01_320_001_IO001_SP";2;47;"Settpunkt under beregnet VP. IO001 Oljekjel 400 kW";;;Y;0.00;0.00;;62
"BinaryValue(39)";10000;".BY01_320_001_IO001_US";5;39;"Start utgang Oljekjel =320.01-IO001";;;Y;;;2;
"BinaryValue(17)";10000;".BY01_320_001_JP401_AL";5;17;"Feil 320.001-JP401";;;Y;;;2;
"AnalogValue(16)";10000;".BY01_320_001_JP401_DT";2;16;"Driftstid";;;Y;0.00;0.00;;71
"BinaryValue(22)";10000;".BY01_320_001_JP401_SD_CMD";5;22;"Start SD";;;Y;;;2;
"BinaryValue(21)";10000;".BY01_320_001_JP401_US";5;21;"Start 320.001-JP401";;;Y;;;2;
"BinaryValue(16)";10000;".BY01_320_001_JP401_V";5;16;"Drift 320.001-JP401";;;Y;;;2;
"AnalogValue(20)";10000;".BY01_320_001_RP001_AL_delay";2;20;"Tidsforsinkelse alarm hoyt trykk";;;Y;0.00;0.00;;72
"BinaryValue(25)";10000;".BY01_320_001_RP001_AL_Pass";5;25;"Bypass alarm hoyt/lav trykk";;;Y;;;2;
"BinaryValue(24)";10000;".BY01_320_001_RP001_AL_Rest";5;24;"Reset alarm hoyt/lav trykk";;;Y;;;2;
"AnalogValue(19)";10000;".BY01_320_001_RP001_H_AL_GR";2;19;"Setpunkt alarm hoyt trykk";;;Y;0.00;0.00;;55
"AnalogValue(18)";10000;".BY01_320_001_RP001_L_AL_GR";2;18;"Setpunkt alarm lav trykk";;;Y;0.00;0.00;;55
"AnalogValue(17)";10000;".BY01_320_001_RP001_PV";2;17;"Trykk hovedkrets";;;Y;0.00;0.00;;53
"BinaryValue(27)";10000;".BY01_320_001_RP001_PV_H_AL";5;27;"Hoy alarm";;;Y;;;3;
"BinaryValue(26)";10000;".BY01_320_001_RP001_PV_L_AL";5;26;"Lav alarm";;;Y;;;4;
"BinaryValue(23)";10000;".BY01_320_001_RP001_V";5;23;"Vanntrykk OK inngang";;;Y;;;2;
"AnalogValue(3)";10000;".BY01_320_001_RT401_AL_delay";2;3;"Tidsforsinkelse alarm hoyt temperatur";;;Y;0.00;0.00;;72
"BinaryValue(1)";10000;".BY01_320_001_RT401_AL_Pass";5;1;"Bypass alarm hoyt/lav temperatur";;;Y;;;2;
"BinaryValue(0)";10000;".BY01_320_001_RT401_AL_Rest";5;0;"Reset alarm hoyt/lav temperatur";;;Y;;;2;
"AnalogValue(2)";10000;".BY01_320_001_RT401_H_AL_GR";2;2;"Setpunkt alarm hoyt temperatur";;;Y;0.00;0.00;;62
"AnalogValue(1)";10000;".BY01_320_001_RT401_L_AL_GR";2;1;"Setpunkt alarm lav temperatur";;;Y;0.00;0.00;;62
"AnalogValue(0)";10000;".BY01_320_001_RT401_PV";2;0;"Temp. tur - Hovedkrets";;;Y;0.00;0.00;;62
"BinaryValue(3)";10000;".BY01_320_001_RT401_PV_H_AL";5;3;"Hoy alarm";;;Y;;;3;
"BinaryValue(2)";10000;".BY01_320_001_RT401_PV_L_AL";5;2;"Lav alarm";;;Y;;;4;
"AnalogValue(7)";10000;".BY01_320_001_RT402_AL_delay";2;7;"Tidsforsinkelse alarm hoyt temperatur";;;Y;0.00;0.00;;72
"BinaryValue(5)";10000;".BY01_320_001_RT402_AL_Pass";5;5;"Bypass alarm hoyt/lav temperatur";;;Y;;;2;
"BinaryValue(4)";10000;".BY01_320_001_RT402_AL_Rest";5;4;"Reset alarm hoyt/lav temperatur";;;Y;;;2;
"AnalogValue(6)";10000;".BY01_320_001_RT402_H_AL_GR";2;6;"Setpunkt alarm hoyt temperatur";;;Y;0.00;0.00;;62
"AnalogValue(5)";10000;".BY01_320_001_RT402_L_AL_GR";2;5;"Setpunkt alarm lav temperatur";;;Y;0.00;0.00;;62
"AnalogValue(4)";10000;".BY01_320_001_RT402_PV";2;4;"Temp. tur - Hovedkrets";;;Y;0.00;0.00;;62
"BinaryValue(7)";10000;".BY01_320_001_RT402_PV_H_AL";5;7;"Hoy alarm";;;Y;;;3;
"BinaryValue(6)";10000;".BY01_320_001_RT402_PV_L_AL";5;6;"Lav alarm";;;Y;;;4;
"AnalogValue(11)";10000;".BY01_320_001_RT501_AL_delay";2;11;"Tidsforsinkelse alarm hoyt temperatur";;;Y;0.00;0.00;;72
"BinaryValue(9)";10000;".BY01_320_001_RT501_AL_Pass";5;9;"Bypass alarm hoyt/lav temperatur";;;Y;;;2;
"BinaryValue(8)";10000;".BY01_320_001_RT501_AL_Rest";5;8;"Reset alarm hoyt/lav temperatur";;;Y;;;2;
"AnalogValue(10)";10000;".BY01_320_001_RT501_H_AL_GR";2;10;"Setpunkt alarm hoyt temperatur";;;Y;0.00;0.00;;62
"AnalogValue(9)";10000;".BY01_320_001_RT501_L_AL_GR";2;9;"Setpunkt alarm lav temperatur";;;Y;0.00;0.00;;62
"AnalogValue(8)";10000;".BY01_320_001_RT501_PV";2;8;"Temp. retur - Hovedkrets";;;Y;0.00;0.00;;62
"BinaryValue(11)";10000;".BY01_320_001_RT501_PV_H_AL";5;11;"Hoy alarm";;;Y;;;3;
"BinaryValue(10)";10000;".BY01_320_001_RT501_PV_L_AL";5;10;"Lav alarm";;;Y;;;4;
"AnalogValue(15)";10000;".BY01_320_001_RT502_AL_delay";2;15;"Tidsforsinkelse alarm hoyt temperatur";;;Y;0.00;0.00;;72
"BinaryValue(13)";10000;".BY01_320_001_RT502_AL_Pass";5;13;"Bypass alarm hoyt/lav temperatur";;;Y;;;2;
"BinaryValue(12)";10000;".BY01_320_001_RT502_AL_Rest";5;12;"Reset alarm hoyt/lav temperatur";;;Y;;;2;
"AnalogValue(14)";10000;".BY01_320_001_RT502_H_AL_GR";2;14;"Setpunkt alarm hoyt temperatur";;;Y;0.00;0.00;;62
"AnalogValue(13)";10000;".BY01_320_001_RT502_L_AL_GR";2;13;"Setpunkt alarm lav temperatur";;;Y;0.00;0.00;;62
"AnalogValue(12)";10000;".BY01_320_001_RT502_PV";2;12;"Temp. retur - Hovedkrets";;;Y;0.00;0.00;;62
"BinaryValue(15)";10000;".BY01_320_001_RT502_PV_H_AL";5;15;"Hoy alarm";;;Y;;;3;
"BinaryValue(14)";10000;".BY01_320_001_RT502_PV_L_AL";5;14;"Lav alarm";;;Y;;;4;
"BinaryValue(72)";10000;".BY01_320_001_RT901_AL";5;72;"Feil uteføler";;;Y;;;5;
"BinaryValue(74)";10000;".BY01_320_001_RT901_AL_Pass";5;74;"Bypass alarm feil uteføler";;;Y;;;2;
"BinaryValue(73)";10000;".BY01_320_001_RT901_AL_Rest";5;73;"Reset alarm feil uteføler";;;Y;;;2;
"MultistateValue(4)";10000;".BY01_320_001_RT901_DMS";19;4;"Tilbakemelding 0-IB, 1-IB, 2-Vinter, 3-Sommer";;;Y;;;;
"MultistateValue(5)";10000;".BY01_320_001_RT901_DMS_CMD";19;5;"Driftsmodus 0-IB, 1-Auto, 2-Vinter, 3-Sommer";;;Y;;;;
"BinaryValue(75)";10000;".BY01_320_001_RT901_Modus";5;75;"Feil 1-dagers modus vinter/sommer";;;Y;;;2;
"AnalogValue(82)";10000;".BY01_320_001_RT901_PV";2;82;"Tempføler ute (Nordvegg)";;;Y;0.00;0.00;;62
"AnalogValue(83)";10000;".BY01_320_001_RT901_SW_S_SP";2;83;"Settpunkt sjalting sommer";;;Y;0.00;0.00;;62
"AnalogValue(84)";10000;".BY01_320_001_RT901_SW_W_SP";2;84;"Settpunkt sjalting vinter";;;Y;0.00;0.00;;62
"BinaryValue(76)";10000;".BY01_320_001_Sommer";5;76;"Sommer";;;Y;;;2;
"AnalogValue(21)";10000;".BY01_320_001_SPC";2;21;"Settpunkt kalkulert fra 4 punkts kurve";;;Y;0.00;0.00;;62
"BinaryValue(77)";10000;".BY01_320_001_Vinter";5;77;"Vinter";;;Y;;;2;
"AnalogValue(36)";10000;".BY01_320_001_X1";2;36;"Utetemperatur (eks -20) 4 punkts kurve";;;Y;0.00;0.00;;62
"AnalogValue(37)";10000;".BY01_320_001_X2";2;37;"Utetemperatur (eks -5) 4 punkts kurve";;;Y;0.00;0.00;;62
"AnalogValue(38)";10000;".BY01_320_001_X3";2;38;"Utetemperatur (eks 5) 4 punkts kurve";;;Y;0.00;0.00;;62
"AnalogValue(39)";10000;".BY01_320_001_X4";2;39;"Utetemperatur (eks 20) 4 punkts kurve";;;Y;0.00;0.00;;62
"AnalogValue(40)";10000;".BY01_320_001_Y1";2;40;"Turvannstemperatur (eks 75) 4 punkts kurve";;;Y;0.00;0.00;;62
"AnalogValue(41)";10000;".BY01_320_001_Y2";2;41;"Turvannstemperatur (eks 65) 4 punkts kurve";;;Y;0.00;0.00;;62
"AnalogValue(42)";10000;".BY01_320_001_Y3";2;42;"Turvannstemperatur (eks 55) 4 punkts kurve";;;Y;0.00;0.00;;62
"AnalogValue(43)";10000;".BY01_320_001_Y4";2;43;"Turvannstemperatur (eks 40) 4 punkts kurve";;;Y;0.00;0.00;;62
"BinaryValue(54)";10000;".BY01_320_002_JP401_AL";5;54;"Feil 320.002-JP401";;;Y;;;2;
"AnalogValue(81)";10000;".BY01_320_002_JP401_DT";2;81;"Driftstid";;;Y;0.00;0.00;;71
"BinaryValue(59)";10000;".BY01_320_002_JP401_SD_CMD";5;59;"Start SD";;;Y;;;2;
"BinaryValue(58)";10000;".BY01_320_002_JP401_US";5;58;"Start 320.002-JP401";;;Y;;;2;
"BinaryValue(53)";10000;".BY01_320_002_JP401_V";5;53;"Drift 320.002-JP401";;;Y;;;2;
"AnalogValue(76)";10000;".BY01_320_002_RT401_AL_delay";2;76;"Tidsforsinkelse alarm hoyt temperatur";;;Y;0.00;0.00;;72
"BinaryValue(46)";10000;".BY01_320_002_RT401_AL_Pass";5;46;"Bypass alarm hoyt/lav temperatur";;;Y;;;2;
"BinaryValue(45)";10000;".BY01_320_002_RT401_AL_Rest";5;45;"Reset alarm hoyt/lav temperatur";;;Y;;;2;
"AnalogValue(75)";10000;".BY01_320_002_RT401_H_AL_GR";2;75;"Setpunkt alarm hoyt temperatur";;;Y;0.00;0.00;;62
"AnalogValue(74)";10000;".BY01_320_002_RT401_L_AL_GR";2;74;"Setpunkt alarm lav temperatur";;;Y;0.00;0.00;;62
"AnalogValue(73)";10000;".BY01_320_002_RT401_PV";2;73;"Temp. tur";;;Y;0.00;0.00;;62
"BinaryValue(48)";10000;".BY01_320_002_RT401_PV_H_AL";5;48;"Hoy alarm";;;Y;;;3;
"BinaryValue(47)";10000;".BY01_320_002_RT401_PV_L_AL";5;47;"Lav alarm";;;Y;;;4;
"AnalogValue(80)";10000;".BY01_320_002_RT501_AL_delay";2;80;"Tidsforsinkelse alarm hoyt temperatur";;;Y;0.00;0.00;;72
"BinaryValue(50)";10000;".BY01_320_002_RT501_AL_Pass";5;50;"Bypass alarm hoyt/lav temperatur";;;Y;;;2;
"BinaryValue(49)";10000;".BY01_320_002_RT501_AL_Rest";5;49;"Reset alarm hoyt/lav temperatur";;;Y;;;2;
"AnalogValue(79)";10000;".BY01_320_002_RT501_H_AL_GR";2;79;"Setpunkt alarm hoyt temperatur";;;Y;0.00;0.00;;62
"AnalogValue(78)";10000;".BY01_320_002_RT501_L_AL_GR";2;78;"Setpunkt alarm lav temperatur";;;Y;0.00;0.00;;62
"AnalogValue(77)";10000;".BY01_320_002_RT501_PV";2;77;"Temp. retur";;;Y;0.00;0.00;;62
"BinaryValue(52)";10000;".BY01_320_002_RT501_PV_H_AL";5;52;"Hoy alarm";;;Y;;;3;
"BinaryValue(51)";10000;".BY01_320_002_RT501_PV_L_AL";5;51;"Lav alarm";;;Y;;;4;
"AnalogValue(62)";10000;".BY01_320_002_SB401_D_SP";2;62;"D-leddet ser paa hvor hurtig avviket endrer seg";;;Y;0.00;0.00;;62
"AnalogValue(61)";10000;".BY01_320_002_SB401_I_SP";2;61;"I-leddet samler opp (integrerer) avviket over tid";;;Y;0.00;0.00;;62
"AnalogValue(63)";10000;".BY01_320_002_SB401_MAN_OP";2;63;"Manuell paadrag 3-veis reg.ventil";;;Y;0.00;0.00;;0
"BinaryValue(44)";10000;".BY01_320_002_SB401_MAN_OP_CMD";5;44;"Manuell operasjon 3-veis reg.ventil";;;Y;;;2;
"AnalogValue(59)";10000;".BY01_320_002_SB401_MAN_SP";2;59;"Manuelt setpunkt";;;Y;0.00;0.00;;62
"BinaryValue(43)";10000;".BY01_320_002_SB401_MAN_SP_CMD";5;43;"Manuell setpunkt";;;Y;;;2;
"AnalogValue(58)";10000;".BY01_320_002_SB401_OP";2;58;"Paadrag";;;Y;0.00;0.00;;98
"AnalogValue(60)";10000;".BY01_320_002_SB401_P_SP";2;60;"Paadrag proporsjonalt med reguleringsavviket";;;Y;0.00;0.00;;62
"AnalogValue(64)";10000;".BY01_320_002_SPU";2;64;"Settpunkt kalkulert fra 4 punkts kurve";;;Y;0.00;0.00;;62
"AnalogValue(65)";10000;".BY01_320_002_X1";2;65;"Utetemperatur (eks -20) 4 punkts kurve";;;Y;0.00;0.00;;62
"AnalogValue(66)";10000;".BY01_320_002_X2";2;66;"Utetemperatur (eks -5) 4 punkts kurve";;;Y;0.00;0.00;;62
"AnalogValue(67)";10000;".BY01_320_002_X3";2;67;"Utetemperatur (eks 5) 4 punkts kurve";;;Y;0.00;0.00;;62
"AnalogValue(68)";10000;".BY01_320_002_X4";2;68;"Utetemperatur (eks 20) 4 punkts kurve";;;Y;0.00;0.00;;62
"AnalogValue(69)";10000;".BY01_320_002_Y1";2;69;"Turvannstemperatur (eks 36) 4 punkts kurve";;;Y;0.00;0.00;;62
"AnalogValue(70)";10000;".BY01_320_002_Y2";2;70;"Turvannstemperatur (eks 33) 4 punkts kurve";;;Y;0.00;0.00;;62
"AnalogValue(71)";10000;".BY01_320_002_Y3";2;71;"Turvannstemperatur (eks 30) 4 punkts kurve";;;Y;0.00;0.00;;62
"AnalogValue(72)";10000;".BY01_320_002_Y4";2;72;"Turvannstemperatur (eks 27) 4 punkts kurve";;;Y;0.00;0.00;;62
"BinaryValue(65)";10000;".BY01_434_001_J_3_etg_AL";5;65;"Jordfeil 3 etg";;;Y;;;6;
"BinaryValue(66)";10000;".BY01_434_001_J_AUT_HF_AL";5;66;"Jordfeil AUT HF";;;Y;;;7;
"BinaryValue(63)";10000;".BY01_434_001_J_Gymbygg_AL";5;63;"Jordfeil Gymbygg";;;Y;;;8;
"BinaryValue(60)";10000;".BY01_434_001_J_Inntak_AL";5;60;"Jordfeil inntak";;;Y;;;9;
"BinaryValue(64)";10000;".BY01_434_001_J_Tilbygg_AL";5;64;"Jordfeil Tilbygg";;;Y;;;10;
"BinaryValue(62)";10000;".BY01_434_001_J_UF1_1_AL";5;62;"Jordfeil Underfordeling 1.1";;;Y;;;11;
"BinaryValue(61)";10000;".BY01_434_001_J_Verksted_AL";5;61;"Jordfeil Verksted";;;Y;;;12;
"BinaryValue(70)";10000;".BY01_434_001_OHT_IE001_AL";5;70;"OHT EL kjel";;;Y;;;13;
"BinaryValue(71)";10000;".BY01_434_001_OHT_VVB_AL";5;71;"OHT VVB";;;Y;;;14;
"BinaryValue(67)";10000;".BY01_434_001_OverSpen_L1_AL";5;67;"Hovedtavle overspenning L1";;;Y;;;15;
"BinaryValue(68)";10000;".BY01_434_001_OverSpen_L2_AL";5;68;"Hovedtavle overspenning L2";;;Y;;;15;
"BinaryValue(69)";10000;".BY01_434_001_OverSpen_L3_AL";5;69;"Hovedtavle overspenning L3";;;Y;;;15;
"MultistateValue(2)";10000;".BY01_434_001_XS001_DMS";19;2;"Tilbakemelding 0-IB, 1-Auto, 2-AV, 3-Manuel";;;Y;;;;
"BinaryValue(35)";10000;".BY01_434_001_XS001_V_AUT";5;35;"Tavlevender 320.001-IO001 Auto";;;Y;;;2;
"BinaryValue(36)";10000;".BY01_434_001_XS001_V_MAN";5;36;"Tavlevender 320.001-IO001 Man";;;Y;;;2;
"BinaryValue(37)";10000;".BY01_434_001_XS001_V_OFF";5;37;"Tavlevender 320.001-IO001 Off";;;Y;;;2;
"MultistateValue(1)";10000;".BY01_434_001_XS002_DMS";19;1;"Tilbakemelding 0-IB, 1-Auto, 2-AV, 3-Manuel";;;Y;;;;
"BinaryValue(32)";10000;".BY01_434_001_XS002_V_AUT";5;32;"Tavlevender 320.001-IE001 Auto";;;Y;;;2;
"BinaryValue(33)";10000;".BY01_434_001_XS002_V_MAN";5;33;"Tavlevender 320.001-IE001 Man";;;Y;;;2;
"BinaryValue(34)";10000;".BY01_434_001_XS002_V_OFF";5;34;"Tavlevender 320.001-IE001 Off";;;Y;;;2;
"MultistateValue(0)";10000;".BY01_434_001_XS003_DMS";19;0;"Tilbakemelding 0-IB, 1-Auto, 2-AV, 3-Manuel";;;Y;;;;
"BinaryValue(18)";10000;".BY01_434_001_XS003_V_AUT";5;18;"Tavlevender 320.001-JP401 Auto";;;Y;;;2;
"BinaryValue(19)";10000;".BY01_434_001_XS003_V_MAN";5;19;"Tavlevender 320.001-JP401 Man";;;Y;;;2;
"BinaryValue(20)";10000;".BY01_434_001_XS003_V_OFF";5;20;"Tavlevender 320.001-JP401 Off";;;Y;;;2;
"MultistateValue(3)";10000;".BY01_434_001_XS004_DMS";19;3;"Tilbakemelding 0-IB, 1-Auto, 2-AV, 3-Manuel";;;Y;;;;
"BinaryValue(55)";10000;".BY01_434_001_XS004_V_AUT";5;55;"Tavlevender 320.002-JP401 Auto";;;Y;;;2;
"BinaryValue(56)";10000;".BY01_434_001_XS004_V_MAN";5;56;"Tavlevender 320.002-JP401 Man";;;Y;;;2;
"BinaryValue(57)";10000;".BY01_434_001_XS004_V_OFF";5;57;"Tavlevender 320.002-JP401 Off";;;Y;;;2;
"AnalogValue(32)";10000;".IE001_rKpMinReturnTemperature";2;32;"Kp min. return temperature limiter";;;Y;0.00;0.00;;0
"AnalogValue(28)";10000;".IE001_rMaxBoilerTemperatureLevel1";2;28;"Max. boiler supply temp level 1";;;Y;0.00;0.00;;62
"AnalogValue(29)";10000;".IE001_rMaxBoilerTemperatureModulating";2;29;"Max. boiler supply temp level 2";;;Y;0.00;0.00;;62
"AnalogValue(31)";10000;".IE001_rMaxReturnTemperature";2;31;"Max. boiler return temp";;;Y;0.00;0.00;;62
"AnalogValue(27)";10000;".IE001_rMinBoilerTemperature";2;27;"Min. boiler supply temp";;;Y;0.00;0.00;;62
"AnalogValue(30)";10000;".IE001_rMinReturnTemperature";2;30;"Min. boiler return temp";;;Y;0.00;0.00;;62
"AnalogValue(26)";10000;".IE001_rOffsetReferenceTemperature";2;26;"Offset for ref. supply temp";;;Y;0.00;0.00;;62
"AnalogValue(33)";10000;".IE001_rTnMinReturnTemperature";2;33;"Tn min. return temperature limiter [s]";;;Y;0.00;0.00;;0
"AnalogValue(34)";10000;".IE001_tMinRunTimeLevel1";2;34;"Min runtime boiler level 1";;;Y;0.00;0.00;;72
"AnalogValue(35)";10000;".IE001_tOffDelayFullLoad";2;35;"Off delay level 2 after full load";;;Y;0.00;0.00;;72
"AnalogValue(54)";10000;".IO001_rKpMinReturnTemperature";2;54;"Kp min. return temperature limiter";;;Y;0.00;0.00;;0
"AnalogValue(50)";10000;".IO001_rMaxBoilerTemperatureLevel1";2;50;"Max. boiler supply temp level 1";;;Y;0.00;0.00;;62
"AnalogValue(51)";10000;".IO001_rMaxBoilerTemperatureModulating";2;51;"Max. boiler supply temp level 2";;;Y;0.00;0.00;;62
"AnalogValue(53)";10000;".IO001_rMaxReturnTemperature";2;53;"Max. boiler return temp";;;Y;0.00;0.00;;62
"AnalogValue(49)";10000;".IO001_rMinBoilerTemperature";2;49;"Min. boiler supply temp";;;Y;0.00;0.00;;62
"AnalogValue(52)";10000;".IO001_rMinReturnTemperature";2;52;"Min. boiler return temp";;;Y;0.00;0.00;;62
"AnalogValue(48)";10000;".IO001_rOffsetReferenceTemperature";2;48;"Offset for ref. supply temp";;;Y;0.00;0.00;;62
"AnalogValue(55)";10000;".IO001_rTnMinReturnTemperature";2;55;"Tn min. return temperature limiter [s]";;;Y;0.00;0.00;;0
"AnalogValue(56)";10000;".IO001_tMinRunTimeLevel1";2;56;"Min runtime boiler level 1";;;Y;0.00;0.00;;72
"AnalogValue(57)";10000;".IO001_tOffDelayFullLoad";2;57;"Off delay level 2 after full load";;;Y;0.00;0.00;;72
"Schedule(0)";10000;"SCHEDULE_0";17;0;;;;N;;;;
